{
    "properties": [
        {
            "modifiers": [
                "public"
            ], 
            "name": "availableTimeSlot", 
            "visibility": "PUBLIC", 
            "references": [], 
            "location": {
                "column": 20, 
                "line": 9
            }, 
            "type": "LIST"
        }, 
        {
            "modifiers": [
                "public"
            ], 
            "name": "TimeSlots", 
            "visibility": "PUBLIC", 
            "references": [], 
            "location": {
                "column": 39, 
                "line": 10
            }, 
            "type": "Map"
        }, 
        {
            "modifiers": [
                "public"
            ], 
            "name": "eventsForInsertion", 
            "visibility": "PUBLIC", 
            "references": [], 
            "location": {
                "column": 20, 
                "line": 11
            }, 
            "type": "LIST"
        }, 
        {
            "modifiers": [
                "public"
            ], 
            "name": "eventsForDeletion", 
            "visibility": "PUBLIC", 
            "references": [], 
            "location": {
                "column": 20, 
                "line": 12
            }, 
            "type": "LIST"
        }, 
        {
            "modifiers": [
                "private"
            ], 
            "name": "DefaultServiceProvider", 
            "visibility": "PRIVATE", 
            "references": [], 
            "location": {
                "column": 9, 
                "line": 13
            }, 
            "type": "Contact"
        }, 
        {
            "modifiers": [
                "private"
            ], 
            "name": "MapLocCatMaping", 
            "visibility": "PRIVATE", 
            "references": [], 
            "location": {
                "column": 46, 
                "line": 14
            }, 
            "type": "Map"
        }, 
        {
            "modifiers": [
                "public"
            ], 
            "name": "isAdmin", 
            "visibility": "PUBLIC", 
            "references": [], 
            "location": {
                "column": 16, 
                "line": 15
            }, 
            "type": "Boolean"
        }, 
        {
            "modifiers": [
                "public"
            ], 
            "name": "whoIds", 
            "visibility": "PUBLIC", 
            "references": [], 
            "location": {
                "column": 17, 
                "line": 17
            }, 
            "type": "LIST"
        }, 
        {
            "modifiers": [
                "public"
            ], 
            "name": "isBulkInsertion", 
            "visibility": "PUBLIC", 
            "references": [], 
            "location": {
                "column": 16, 
                "line": 18
            }, 
            "type": "Boolean"
        }, 
        {
            "modifiers": [
                "static", 
                "public"
            ], 
            "name": "schedulerCustomSettingName", 
            "visibility": "PUBLIC", 
            "references": [], 
            "location": {
                "column": 22, 
                "line": 16
            }, 
            "type": "String"
        }
    ], 
    "externalReferences": [], 
    "innerClasses": [
        {
            "properties": [
                {
                    "modifiers": [
                        "public"
                    ], 
                    "name": "startTime", 
                    "visibility": "PUBLIC", 
                    "references": [], 
                    "location": {
                        "column": 19, 
                        "line": 597
                    }, 
                    "type": "String"
                }, 
                {
                    "modifiers": [
                        "public"
                    ], 
                    "name": "endTime", 
                    "visibility": "PUBLIC", 
                    "references": [], 
                    "location": {
                        "column": 19, 
                        "line": 598
                    }, 
                    "type": "String"
                }, 
                {
                    "modifiers": [
                        "public"
                    ], 
                    "name": "LocMapId", 
                    "visibility": "PUBLIC", 
                    "references": [], 
                    "location": {
                        "column": 19, 
                        "line": 599
                    }, 
                    "type": "String"
                }
            ], 
            "externalReferences": [], 
            "innerClasses": [], 
            "interfaces": [], 
            "constructors": [
                {
                    "modifiers": [
                        "public"
                    ], 
                    "name": "timeWrapper", 
                    "parameters": [], 
                    "visibility": "PUBLIC", 
                    "references": [], 
                    "location": {
                        "column": 12, 
                        "line": 600
                    }, 
                    "type": null
                }, 
                {
                    "modifiers": [
                        "private"
                    ], 
                    "name": "timeWrapper", 
                    "parameters": [
                        {
                            "type": "String", 
                            "name": "startTym"
                        }, 
                        {
                            "type": "String", 
                            "name": "EndTym"
                        }
                    ], 
                    "visibility": "PRIVATE", 
                    "references": [], 
                    "location": {
                        "column": 5, 
                        "line": 602
                    }, 
                    "type": null
                }, 
                {
                    "modifiers": [
                        "private"
                    ], 
                    "name": "timeWrapper", 
                    "parameters": [
                        {
                            "type": "String", 
                            "name": "startTym"
                        }, 
                        {
                            "type": "String", 
                            "name": "EndTym"
                        }, 
                        {
                            "type": "String", 
                            "name": "loccatmapid"
                        }
                    ], 
                    "visibility": "PRIVATE", 
                    "references": [], 
                    "location": {
                        "column": 5, 
                        "line": 607
                    }, 
                    "type": null
                }
            ], 
            "namespace": null, 
            "name": "timeWrapper", 
            "tableDeclaration": {
                "type": "timeWrapper", 
                "modifiers": [
                    "public"
                ], 
                "references": [], 
                "location": {
                    "column": 14, 
                    "line": 595
                }, 
                "name": "timeWrapper"
            }, 
            "key": null, 
            "variables": [
                {
                    "type": "String", 
                    "modifiers": [], 
                    "references": [], 
                    "location": {
                        "column": 24, 
                        "line": 602
                    }, 
                    "name": "startTym"
                }, 
                {
                    "type": "String", 
                    "modifiers": [], 
                    "references": [], 
                    "location": {
                        "column": 41, 
                        "line": 602
                    }, 
                    "name": "EndTym"
                }, 
                {
                    "type": "String", 
                    "modifiers": [], 
                    "references": [], 
                    "location": {
                        "column": 24, 
                        "line": 607
                    }, 
                    "name": "startTym"
                }, 
                {
                    "type": "String", 
                    "modifiers": [], 
                    "references": [], 
                    "location": {
                        "column": 41, 
                        "line": 607
                    }, 
                    "name": "EndTym"
                }, 
                {
                    "type": "String", 
                    "modifiers": [], 
                    "references": [], 
                    "location": {
                        "column": 55, 
                        "line": 607
                    }, 
                    "name": "loccatmapid"
                }
            ], 
            "id": null, 
            "methods": []
        }
    ], 
    "interfaces": [], 
    "constructors": [
        {
            "modifiers": [
                "public"
            ], 
            "name": "AvailabilityController", 
            "parameters": [], 
            "visibility": "PUBLIC", 
            "references": [], 
            "location": {
                "column": 8, 
                "line": 19
            }, 
            "type": null
        }, 
        {
            "modifiers": [
                "public"
            ], 
            "name": "AvailabilityController", 
            "parameters": [
                {
                    "type": "Boolean", 
                    "name": "isAdmin"
                }, 
                {
                    "type": "Contact", 
                    "name": "defaultServiceProvider"
                }
            ], 
            "visibility": "PUBLIC", 
            "references": [], 
            "location": {
                "column": 8, 
                "line": 30
            }, 
            "type": null
        }, 
        {
            "modifiers": [
                "public"
            ], 
            "name": "AvailabilityController", 
            "parameters": [
                {
                    "type": "Boolean", 
                    "name": "isAdmin"
                }, 
                {
                    "type": "Contact", 
                    "name": "defaultServiceProvider"
                }, 
                {
                    "type": "Map", 
                    "name": "Maplocmaping"
                }
            ], 
            "visibility": "PUBLIC", 
            "references": [], 
            "location": {
                "column": 8, 
                "line": 37
            }, 
            "type": null
        }, 
        {
            "modifiers": [
                "public"
            ], 
            "name": "AvailabilityController", 
            "parameters": [
                {
                    "type": "Boolean", 
                    "name": "calledFromUI"
                }
            ], 
            "visibility": "PUBLIC", 
            "references": [], 
            "location": {
                "column": 8, 
                "line": 47
            }, 
            "type": null
        }
    ], 
    "namespace": null, 
    "name": "AvailabilityController", 
    "tableDeclaration": {
        "type": "AvailabilityController", 
        "modifiers": [
            "public", 
            "with sharing"
        ], 
        "references": [], 
        "location": {
            "column": 27, 
            "line": 7
        }, 
        "name": "AvailabilityController"
    }, 
    "key": "01p28000005Ze0SAAS", 
    "variables": [
        {
            "type": "Boolean", 
            "modifiers": [], 
            "references": [], 
            "location": {
                "column": 40, 
                "line": 30
            }, 
            "name": "isAdmin"
        }, 
        {
            "type": "Contact", 
            "modifiers": [], 
            "references": [], 
            "location": {
                "column": 56, 
                "line": 30
            }, 
            "name": "defaultServiceProvider"
        }, 
        {
            "type": "Boolean", 
            "modifiers": [], 
            "references": [], 
            "location": {
                "column": 40, 
                "line": 37
            }, 
            "name": "isAdmin"
        }, 
        {
            "type": "Contact", 
            "modifiers": [], 
            "references": [], 
            "location": {
                "column": 56, 
                "line": 37
            }, 
            "name": "defaultServiceProvider"
        }, 
        {
            "type": "Map", 
            "modifiers": [], 
            "references": [], 
            "location": {
                "column": 116, 
                "line": 37
            }, 
            "name": "Maplocmaping"
        }, 
        {
            "type": "Boolean", 
            "modifiers": [], 
            "references": [], 
            "location": {
                "column": 39, 
                "line": 47
            }, 
            "name": "calledFromUI"
        }, 
        {
            "type": "String", 
            "modifiers": [], 
            "references": [], 
            "location": {
                "column": 12, 
                "line": 66
            }, 
            "name": "returnMsg"
        }, 
        {
            "type": "Integer", 
            "modifiers": [], 
            "references": [], 
            "location": {
                "column": 17, 
                "line": 88
            }, 
            "name": "index"
        }, 
        {
            "type": "LIST", 
            "modifiers": [], 
            "references": [], 
            "location": {
                "column": 31, 
                "line": 92
            }, 
            "name": "tempLst"
        }, 
        {
            "type": "String", 
            "modifiers": [], 
            "references": [], 
            "location": {
                "column": 12, 
                "line": 99
            }, 
            "name": "condition"
        }, 
        {
            "type": "LIST", 
            "modifiers": [], 
            "references": [], 
            "location": {
                "column": 19, 
                "line": 100
            }, 
            "name": "ServiceProviders"
        }, 
        {
            "type": "Boolean", 
            "modifiers": [], 
            "references": [], 
            "location": {
                "column": 48, 
                "line": 107
            }, 
            "name": "isAdmin"
        }, 
        {
            "type": "Date", 
            "modifiers": [], 
            "references": [], 
            "location": {
                "column": 10, 
                "line": 109
            }, 
            "name": "todayDate"
        }, 
        {
            "type": "Date", 
            "modifiers": [], 
            "references": [], 
            "location": {
                "column": 10, 
                "line": 110
            }, 
            "name": "startDate"
        }, 
        {
            "type": "Date", 
            "modifiers": [], 
            "references": [], 
            "location": {
                "column": 10, 
                "line": 111
            }, 
            "name": "endDate"
        }, 
        {
            "type": "String", 
            "modifiers": [], 
            "references": [], 
            "location": {
                "column": 12, 
                "line": 112
            }, 
            "name": "condition"
        }, 
        {
            "type": "Set", 
            "modifiers": [], 
            "references": [], 
            "location": {
                "column": 17, 
                "line": 122
            }, 
            "name": "SetLocMapIds"
        }, 
        {
            "type": "EpracticeSettings__c", 
            "modifiers": [], 
            "references": [], 
            "location": {
                "column": 26, 
                "line": 142
            }, 
            "name": "schedulerSetting"
        }, 
        {
            "type": "String", 
            "modifiers": [], 
            "references": [], 
            "location": {
                "column": 12, 
                "line": 173
            }, 
            "name": "jobName"
        }, 
        {
            "type": "String", 
            "modifiers": [], 
            "references": [], 
            "location": {
                "column": 12, 
                "line": 174
            }, 
            "name": "cronExpression"
        }, 
        {
            "type": "workingTimeSlotScheduler", 
            "modifiers": [], 
            "references": [], 
            "location": {
                "column": 30, 
                "line": 175
            }, 
            "name": "jobObject"
        }, 
        {
            "type": "Contact", 
            "modifiers": [], 
            "references": [], 
            "location": {
                "column": 37, 
                "line": 178
            }, 
            "name": "selectedServiceProvider"
        }, 
        {
            "type": "LIST", 
            "modifiers": [], 
            "references": [], 
            "location": {
                "column": 23, 
                "line": 182
            }, 
            "name": "timeWraperList"
        }, 
        {
            "type": "Event", 
            "modifiers": [], 
            "references": [], 
            "location": {
                "column": 19, 
                "line": 185
            }, 
            "name": "E"
        }, 
        {
            "type": "Date", 
            "modifiers": [], 
            "references": [], 
            "location": {
                "column": 22, 
                "line": 189
            }, 
            "name": "DateObj"
        }, 
        {
            "type": "Time", 
            "modifiers": [], 
            "references": [], 
            "location": {
                "column": 22, 
                "line": 190
            }, 
            "name": "TimeObj"
        }, 
        {
            "type": "Datetime", 
            "modifiers": [], 
            "references": [], 
            "location": {
                "column": 26, 
                "line": 191
            }, 
            "name": "Dt1"
        }, 
        {
            "type": "Datetime", 
            "modifiers": [], 
            "references": [], 
            "location": {
                "column": 26, 
                "line": 195
            }, 
            "name": "Dt2"
        }, 
        {
            "type": "Integer", 
            "modifiers": [], 
            "references": [], 
            "location": {
                "column": 32, 
                "line": 216
            }, 
            "name": "key"
        }, 
        {
            "type": "Event", 
            "modifiers": [], 
            "references": [], 
            "location": {
                "column": 42, 
                "line": 216
            }, 
            "name": "E"
        }, 
        {
            "type": "LIST", 
            "modifiers": [], 
            "references": [], 
            "location": {
                "column": 23, 
                "line": 219
            }, 
            "name": "timeWrapLst"
        }, 
        {
            "type": "timeWrapper", 
            "modifiers": [], 
            "references": [], 
            "location": {
                "column": 17, 
                "line": 220
            }, 
            "name": "timeWrapObj"
        }, 
        {
            "type": "LIST", 
            "modifiers": [], 
            "references": [], 
            "location": {
                "column": 17, 
                "line": 232
            }, 
            "name": "eventToBeInserted"
        }, 
        {
            "type": "Integer", 
            "modifiers": [], 
            "references": [], 
            "location": {
                "column": 17, 
                "line": 233
            }, 
            "name": "weekDay"
        }, 
        {
            "type": "LIST", 
            "modifiers": [], 
            "references": [], 
            "location": {
                "column": 28, 
                "line": 238
            }, 
            "name": "timeWrapLst"
        }, 
        {
            "type": "timeWrapper", 
            "modifiers": [], 
            "references": [], 
            "location": {
                "column": 25, 
                "line": 242
            }, 
            "name": "timeWrapperObj"
        }, 
        {
            "type": "timeWrapper", 
            "modifiers": [], 
            "references": [], 
            "location": {
                "column": 25, 
                "line": 243
            }, 
            "name": "timeWrapperObj1"
        }, 
        {
            "type": "LIST", 
            "modifiers": [], 
            "references": [], 
            "location": {
                "column": 46, 
                "line": 267
            }, 
            "name": "eventLst"
        }, 
        {
            "type": "Event", 
            "modifiers": [], 
            "references": [], 
            "location": {
                "column": 15, 
                "line": 269
            }, 
            "name": "e"
        }, 
        {
            "type": "timeWrapper", 
            "modifiers": [], 
            "references": [], 
            "location": {
                "column": 37, 
                "line": 297
            }, 
            "name": "timeWrapperObj"
        }, 
        {
            "type": "Integer", 
            "modifiers": [], 
            "references": [], 
            "location": {
                "column": 60, 
                "line": 297
            }, 
            "name": "weekDay"
        }, 
        {
            "type": "Integer", 
            "modifiers": [], 
            "references": [], 
            "location": {
                "column": 13, 
                "line": 301
            }, 
            "name": "startTime"
        }, 
        {
            "type": "Integer", 
            "modifiers": [], 
            "references": [], 
            "location": {
                "column": 23, 
                "line": 301
            }, 
            "name": "hour"
        }, 
        {
            "type": "Integer", 
            "modifiers": [], 
            "references": [], 
            "location": {
                "column": 28, 
                "line": 301
            }, 
            "name": "minutes"
        }, 
        {
            "type": "Integer", 
            "modifiers": [], 
            "references": [], 
            "location": {
                "column": 36, 
                "line": 301
            }, 
            "name": "duaration"
        }, 
        {
            "type": "Date", 
            "modifiers": [], 
            "references": [], 
            "location": {
                "column": 10, 
                "line": 302
            }, 
            "name": "StartDate"
        }, 
        {
            "type": "Date", 
            "modifiers": [], 
            "references": [], 
            "location": {
                "column": 10, 
                "line": 304
            }, 
            "name": "EndDate"
        }, 
        {
            "type": "Event", 
            "modifiers": [], 
            "references": [], 
            "location": {
                "column": 11, 
                "line": 310
            }, 
            "name": "freeSlot"
        }, 
        {
            "type": "Time", 
            "modifiers": [], 
            "references": [], 
            "location": {
                "column": 10, 
                "line": 316
            }, 
            "name": "tym"
        }, 
        {
            "type": "Id", 
            "modifiers": [], 
            "references": [], 
            "location": {
                "column": 34, 
                "line": 348
            }, 
            "name": "WhoID"
        }, 
        {
            "type": "Set", 
            "modifiers": [], 
            "references": [], 
            "location": {
                "column": 48, 
                "line": 348
            }, 
            "name": "SetLoccatmapids"
        }, 
        {
            "type": "Boolean", 
            "modifiers": [], 
            "references": [], 
            "location": {
                "column": 72, 
                "line": 348
            }, 
            "name": "isservprovider"
        }, 
        {
            "type": "String", 
            "modifiers": [], 
            "references": [], 
            "location": {
                "column": 16, 
                "line": 352
            }, 
            "name": "condition"
        }, 
        {
            "type": "Map", 
            "modifiers": [], 
            "references": [], 
            "location": {
                "column": 47, 
                "line": 397
            }, 
            "name": "Savedata"
        }, 
        {
            "type": "Contact", 
            "modifiers": [], 
            "references": [], 
            "location": {
                "column": 64, 
                "line": 397
            }, 
            "name": "ServiceProvider"
        }, 
        {
            "type": "Id", 
            "modifiers": [], 
            "references": [], 
            "location": {
                "column": 83, 
                "line": 397
            }, 
            "name": "LocMapId"
        }, 
        {
            "type": "LIST", 
            "modifiers": [], 
            "references": [], 
            "location": {
                "column": 31, 
                "line": 402
            }, 
            "name": "tempLst"
        }, 
        {
            "type": "timeWrapper", 
            "modifiers": [], 
            "references": [], 
            "location": {
                "column": 29, 
                "line": 405
            }, 
            "name": "obj"
        }, 
        {
            "type": "timeWrapper", 
            "modifiers": [], 
            "references": [], 
            "location": {
                "column": 29, 
                "line": 406
            }, 
            "name": "obj1"
        }, 
        {
            "type": "timeWrapper", 
            "modifiers": [], 
            "references": [], 
            "location": {
                "column": 29, 
                "line": 412
            }, 
            "name": "obj"
        }, 
        {
            "type": "timeWrapper", 
            "modifiers": [], 
            "references": [], 
            "location": {
                "column": 29, 
                "line": 413
            }, 
            "name": "obj1"
        }, 
        {
            "type": "LIST", 
            "modifiers": [], 
            "references": [], 
            "location": {
                "column": 31, 
                "line": 419
            }, 
            "name": "tempLst1"
        }, 
        {
            "type": "timeWrapper", 
            "modifiers": [], 
            "references": [], 
            "location": {
                "column": 29, 
                "line": 422
            }, 
            "name": "obj2"
        }, 
        {
            "type": "timeWrapper", 
            "modifiers": [], 
            "references": [], 
            "location": {
                "column": 29, 
                "line": 423
            }, 
            "name": "obj3"
        }, 
        {
            "type": "timeWrapper", 
            "modifiers": [], 
            "references": [], 
            "location": {
                "column": 29, 
                "line": 429
            }, 
            "name": "obj2"
        }, 
        {
            "type": "timeWrapper", 
            "modifiers": [], 
            "references": [], 
            "location": {
                "column": 29, 
                "line": 430
            }, 
            "name": "obj3"
        }, 
        {
            "type": "LIST", 
            "modifiers": [], 
            "references": [], 
            "location": {
                "column": 31, 
                "line": 436
            }, 
            "name": "tempLst2"
        }, 
        {
            "type": "timeWrapper", 
            "modifiers": [], 
            "references": [], 
            "location": {
                "column": 29, 
                "line": 439
            }, 
            "name": "obj4"
        }, 
        {
            "type": "timeWrapper", 
            "modifiers": [], 
            "references": [], 
            "location": {
                "column": 29, 
                "line": 440
            }, 
            "name": "obj5"
        }, 
        {
            "type": "timeWrapper", 
            "modifiers": [], 
            "references": [], 
            "location": {
                "column": 29, 
                "line": 446
            }, 
            "name": "obj4"
        }, 
        {
            "type": "timeWrapper", 
            "modifiers": [], 
            "references": [], 
            "location": {
                "column": 29, 
                "line": 447
            }, 
            "name": "obj5"
        }, 
        {
            "type": "LIST", 
            "modifiers": [], 
            "references": [], 
            "location": {
                "column": 31, 
                "line": 453
            }, 
            "name": "tempLst3"
        }, 
        {
            "type": "timeWrapper", 
            "modifiers": [], 
            "references": [], 
            "location": {
                "column": 29, 
                "line": 456
            }, 
            "name": "obj6"
        }, 
        {
            "type": "timeWrapper", 
            "modifiers": [], 
            "references": [], 
            "location": {
                "column": 29, 
                "line": 457
            }, 
            "name": "obj7"
        }, 
        {
            "type": "timeWrapper", 
            "modifiers": [], 
            "references": [], 
            "location": {
                "column": 29, 
                "line": 463
            }, 
            "name": "obj6"
        }, 
        {
            "type": "timeWrapper", 
            "modifiers": [], 
            "references": [], 
            "location": {
                "column": 29, 
                "line": 464
            }, 
            "name": "obj7"
        }, 
        {
            "type": "LIST", 
            "modifiers": [], 
            "references": [], 
            "location": {
                "column": 31, 
                "line": 470
            }, 
            "name": "tempLst4"
        }, 
        {
            "type": "timeWrapper", 
            "modifiers": [], 
            "references": [], 
            "location": {
                "column": 29, 
                "line": 473
            }, 
            "name": "obj8"
        }, 
        {
            "type": "timeWrapper", 
            "modifiers": [], 
            "references": [], 
            "location": {
                "column": 29, 
                "line": 474
            }, 
            "name": "obj9"
        }, 
        {
            "type": "timeWrapper", 
            "modifiers": [], 
            "references": [], 
            "location": {
                "column": 29, 
                "line": 480
            }, 
            "name": "obj8"
        }, 
        {
            "type": "timeWrapper", 
            "modifiers": [], 
            "references": [], 
            "location": {
                "column": 29, 
                "line": 481
            }, 
            "name": "obj9"
        }, 
        {
            "type": "LIST", 
            "modifiers": [], 
            "references": [], 
            "location": {
                "column": 31, 
                "line": 487
            }, 
            "name": "tempLst5"
        }, 
        {
            "type": "timeWrapper", 
            "modifiers": [], 
            "references": [], 
            "location": {
                "column": 29, 
                "line": 490
            }, 
            "name": "obj10"
        }, 
        {
            "type": "timeWrapper", 
            "modifiers": [], 
            "references": [], 
            "location": {
                "column": 29, 
                "line": 491
            }, 
            "name": "obj11"
        }, 
        {
            "type": "timeWrapper", 
            "modifiers": [], 
            "references": [], 
            "location": {
                "column": 29, 
                "line": 497
            }, 
            "name": "obj10"
        }, 
        {
            "type": "timeWrapper", 
            "modifiers": [], 
            "references": [], 
            "location": {
                "column": 29, 
                "line": 498
            }, 
            "name": "obj11"
        }, 
        {
            "type": "LIST", 
            "modifiers": [], 
            "references": [], 
            "location": {
                "column": 31, 
                "line": 504
            }, 
            "name": "tempLst6"
        }, 
        {
            "type": "timeWrapper", 
            "modifiers": [], 
            "references": [], 
            "location": {
                "column": 29, 
                "line": 507
            }, 
            "name": "obj12"
        }, 
        {
            "type": "timeWrapper", 
            "modifiers": [], 
            "references": [], 
            "location": {
                "column": 29, 
                "line": 508
            }, 
            "name": "obj13"
        }, 
        {
            "type": "timeWrapper", 
            "modifiers": [], 
            "references": [], 
            "location": {
                "column": 28, 
                "line": 514
            }, 
            "name": "obj12"
        }, 
        {
            "type": "timeWrapper", 
            "modifiers": [], 
            "references": [], 
            "location": {
                "column": 29, 
                "line": 515
            }, 
            "name": "obj13"
        }, 
        {
            "type": "Contact", 
            "modifiers": [], 
            "references": [], 
            "location": {
                "column": 27, 
                "line": 527
            }, 
            "name": "C"
        }, 
        {
            "type": "Contact", 
            "modifiers": [], 
            "references": [], 
            "location": {
                "column": 41, 
                "line": 534
            }, 
            "name": "serviceProvider"
        }, 
        {
            "type": "String", 
            "modifiers": [], 
            "references": [], 
            "location": {
                "column": 12, 
                "line": 544
            }, 
            "name": "TimeslotJson"
        }, 
        {
            "type": "Integer", 
            "modifiers": [], 
            "references": [], 
            "location": {
                "column": 52, 
                "line": 282
            }, 
            "name": "startTime"
        }, 
        {
            "type": "Integer", 
            "modifiers": [], 
            "references": [], 
            "location": {
                "column": 70, 
                "line": 282
            }, 
            "name": "endTime"
        }, 
        {
            "type": "Integer", 
            "modifiers": [], 
            "references": [], 
            "location": {
                "column": 13, 
                "line": 284
            }, 
            "name": "startHour"
        }, 
        {
            "type": "Integer", 
            "modifiers": [], 
            "references": [], 
            "location": {
                "column": 23, 
                "line": 284
            }, 
            "name": "endHour"
        }, 
        {
            "type": "Integer", 
            "modifiers": [], 
            "references": [], 
            "location": {
                "column": 31, 
                "line": 284
            }, 
            "name": "startMin"
        }, 
        {
            "type": "Integer", 
            "modifiers": [], 
            "references": [], 
            "location": {
                "column": 40, 
                "line": 284
            }, 
            "name": "endMin"
        }, 
        {
            "type": "Integer", 
            "modifiers": [], 
            "references": [], 
            "location": {
                "column": 47, 
                "line": 284
            }, 
            "name": "difference"
        }, 
        {
            "type": "Integer", 
            "modifiers": [], 
            "references": [], 
            "location": {
                "column": 42, 
                "line": 326
            }, 
            "name": "weekDay"
        }, 
        {
            "type": "Id", 
            "modifiers": [], 
            "references": [], 
            "location": {
                "column": 45, 
                "line": 552
            }, 
            "name": "WhoID"
        }, 
        {
            "type": "Set", 
            "modifiers": [], 
            "references": [], 
            "location": {
                "column": 59, 
                "line": 552
            }, 
            "name": "SetLoccatmapids"
        }, 
        {
            "type": "LIST", 
            "modifiers": [], 
            "references": [], 
            "location": {
                "column": 17, 
                "line": 554
            }, 
            "name": "availTimeSlots"
        }, 
        {
            "type": "Savepoint", 
            "modifiers": [], 
            "references": [], 
            "location": {
                "column": 15, 
                "line": 555
            }, 
            "name": "sp"
        }, 
        {
            "type": "Map", 
            "modifiers": [], 
            "references": [], 
            "location": {
                "column": 46, 
                "line": 558
            }, 
            "name": "Maplocmaping"
        }, 
        {
            "type": "Contact", 
            "modifiers": [], 
            "references": [], 
            "location": {
                "column": 17, 
                "line": 559
            }, 
            "name": "serviceProvider"
        }, 
        {
            "type": "AvailabilityController", 
            "modifiers": [], 
            "references": [], 
            "location": {
                "column": 40, 
                "line": 581
            }, 
            "name": "availCntrOb"
        }
    ], 
    "id": "01p28000005Ze0SAAS", 
    "methods": [
        {
            "modifiers": [
                "public"
            ], 
            "name": "addDefaultractitioner", 
            "parameters": [], 
            "visibility": "PUBLIC", 
            "references": [], 
            "location": {
                "column": 13, 
                "line": 60
            }, 
            "returnType": "void", 
            "type": null
        }, 
        {
            "modifiers": [
                "public"
            ], 
            "name": "saveAllTimeSlots", 
            "parameters": [], 
            "visibility": "PUBLIC", 
            "references": [], 
            "location": {
                "column": 15, 
                "line": 64
            }, 
            "returnType": "String", 
            "type": null
        }, 
        {
            "modifiers": [
                "private"
            ], 
            "name": "initTimeSlots", 
            "parameters": [], 
            "visibility": "PRIVATE", 
            "references": [], 
            "location": {
                "column": 6, 
                "line": 85
            }, 
            "returnType": "void", 
            "type": null
        }, 
        {
            "modifiers": [
                "public"
            ], 
            "name": "fetchAllServiceProvider", 
            "parameters": [], 
            "visibility": "PUBLIC", 
            "references": [], 
            "location": {
                "column": 22, 
                "line": 97
            }, 
            "returnType": "LIST", 
            "type": null
        }, 
        {
            "modifiers": [
                "public"
            ], 
            "name": "fetchAllAvailableTimeSlot", 
            "parameters": [
                {
                    "type": "Boolean", 
                    "name": "isAdmin"
                }
            ], 
            "visibility": "PUBLIC", 
            "references": [], 
            "location": {
                "column": 14, 
                "line": 107
            }, 
            "returnType": "void", 
            "type": null
        }, 
        {
            "modifiers": [
                "public"
            ], 
            "name": "startScheduler", 
            "parameters": [], 
            "visibility": "PUBLIC", 
            "references": [], 
            "location": {
                "column": 13, 
                "line": 140
            }, 
            "returnType": "void", 
            "type": null
        }, 
        {
            "modifiers": [
                "private"
            ], 
            "name": "callScheduler", 
            "parameters": [], 
            "visibility": "PRIVATE", 
            "references": [], 
            "location": {
                "column": 6, 
                "line": 171
            }, 
            "returnType": "void", 
            "type": null
        }, 
        {
            "modifiers": [
                "public"
            ], 
            "name": "processTimeSlot", 
            "parameters": [
                {
                    "type": "Contact", 
                    "name": "selectedServiceProvider"
                }
            ], 
            "visibility": "PUBLIC", 
            "references": [], 
            "location": {
                "column": 13, 
                "line": 178
            }, 
            "returnType": "void", 
            "type": null
        }, 
        {
            "modifiers": [
                "private"
            ], 
            "name": "populateTimeSlots", 
            "parameters": [
                {
                    "type": "Integer", 
                    "name": "key"
                }, 
                {
                    "type": "Event", 
                    "name": "E"
                }
            ], 
            "visibility": "PRIVATE", 
            "references": [], 
            "location": {
                "column": 6, 
                "line": 216
            }, 
            "returnType": "void", 
            "type": null
        }, 
        {
            "modifiers": [
                "public"
            ], 
            "name": "saveServiceProviderWorkingTimeSlot", 
            "parameters": [], 
            "visibility": "PUBLIC", 
            "references": [], 
            "location": {
                "column": 20, 
                "line": 230
            }, 
            "returnType": "LIST", 
            "type": null
        }, 
        {
            "modifiers": [
                "private"
            ], 
            "name": "populateCommonFeilds", 
            "parameters": [
                {
                    "type": "LIST", 
                    "name": "eventLst"
                }
            ], 
            "visibility": "PRIVATE", 
            "references": [], 
            "location": {
                "column": 13, 
                "line": 267
            }, 
            "returnType": "LIST", 
            "type": null
        }, 
        {
            "modifiers": [
                "private"
            ], 
            "name": "getSpecificFeilds", 
            "parameters": [
                {
                    "type": "timeWrapper", 
                    "name": "timeWrapperObj"
                }, 
                {
                    "type": "Integer", 
                    "name": "weekDay"
                }
            ], 
            "visibility": "PRIVATE", 
            "references": [], 
            "location": {
                "column": 7, 
                "line": 297
            }, 
            "returnType": "Event", 
            "type": null
        }, 
        {
            "modifiers": [
                "public"
            ], 
            "name": "deleteAllFreeSlot", 
            "parameters": [
                {
                    "type": "Id", 
                    "name": "WhoID"
                }, 
                {
                    "type": "Set", 
                    "name": "SetLoccatmapids"
                }, 
                {
                    "type": "Boolean", 
                    "name": "isservprovider"
                }
            ], 
            "visibility": "PUBLIC", 
            "references": [], 
            "location": {
                "column": 13, 
                "line": 348
            }, 
            "returnType": "void", 
            "type": null
        }, 
        {
            "modifiers": [
                "public"
            ], 
            "name": "ProcessSaveWTs", 
            "parameters": [
                {
                    "type": "Map", 
                    "name": "Savedata"
                }, 
                {
                    "type": "Contact", 
                    "name": "ServiceProvider"
                }, 
                {
                    "type": "Id", 
                    "name": "LocMapId"
                }
            ], 
            "visibility": "PUBLIC", 
            "references": [], 
            "location": {
                "column": 13, 
                "line": 397
            }, 
            "returnType": "void", 
            "type": null
        }, 
        {
            "modifiers": [
                "public"
            ], 
            "name": "test1", 
            "parameters": [
                {
                    "type": "Contact", 
                    "name": "C"
                }
            ], 
            "visibility": "PUBLIC", 
            "references": [], 
            "location": {
                "column": 13, 
                "line": 527
            }, 
            "returnType": "void", 
            "type": null
        }, 
        {
            "modifiers": [
                "public"
            ], 
            "name": "populateTimeSlotMap", 
            "parameters": [
                {
                    "type": "Contact", 
                    "name": "serviceProvider"
                }
            ], 
            "visibility": "PUBLIC", 
            "references": [], 
            "location": {
                "column": 13, 
                "line": 534
            }, 
            "returnType": "void", 
            "type": null
        }, 
        {
            "modifiers": [
                "public"
            ], 
            "name": "getTimeslotJson", 
            "parameters": [], 
            "visibility": "PUBLIC", 
            "references": [], 
            "location": {
                "column": 15, 
                "line": 542
            }, 
            "returnType": "String", 
            "type": null
        }, 
        {
            "modifiers": [
                "static", 
                "public"
            ], 
            "name": "getDurationInMinunte", 
            "parameters": [
                {
                    "type": "Integer", 
                    "name": "startTime"
                }, 
                {
                    "type": "Integer", 
                    "name": "endTime"
                }
            ], 
            "visibility": "PUBLIC", 
            "references": [], 
            "location": {
                "column": 23, 
                "line": 282
            }, 
            "returnType": "Integer", 
            "type": null
        }, 
        {
            "modifiers": [
                "static", 
                "public"
            ], 
            "name": "getMaskDay", 
            "parameters": [
                {
                    "type": "Integer", 
                    "name": "weekDay"
                }
            ], 
            "visibility": "PUBLIC", 
            "references": [], 
            "location": {
                "column": 23, 
                "line": 326
            }, 
            "returnType": "Integer", 
            "type": null
        }, 
        {
            "modifiers": [
                "static", 
                "public"
            ], 
            "name": "insertWorkingTimeSlot", 
            "parameters": [
                {
                    "type": "Id", 
                    "name": "WhoID"
                }, 
                {
                    "type": "Set", 
                    "name": "SetLoccatmapids"
                }
            ], 
            "visibility": "PUBLIC", 
            "references": [], 
            "location": {
                "column": 20, 
                "line": 552
            }, 
            "returnType": "void", 
            "type": null
        }
    ]
}