{
    "properties": [], 
    "externalReferences": [], 
    "innerClasses": [], 
    "interfaces": [], 
    "constructors": [], 
    "namespace": null, 
    "name": "endUserWidgetFetchAPI", 
    "tableDeclaration": {
        "type": "endUserWidgetFetchAPI", 
        "modifiers": [
            "global"
        ], 
        "references": [], 
        "location": {
            "column": 14, 
            "line": 2
        }, 
        "name": "endUserWidgetFetchAPI"
    }, 
    "key": "01p28000004he6YAAQ", 
    "variables": [
        {
            "type": "retriveLocationHelper", 
            "modifiers": [], 
            "references": [], 
            "location": {
                "column": 37, 
                "line": 11
            }, 
            "name": "returnObject"
        }, 
        {
            "type": "String", 
            "modifiers": [], 
            "references": [], 
            "location": {
                "column": 16, 
                "line": 27
            }, 
            "name": "Fetch_Monthly_Calendar"
        }, 
        {
            "type": "String", 
            "modifiers": [], 
            "references": [], 
            "location": {
                "column": 16, 
                "line": 28
            }, 
            "name": "Fetch_Daily_Available_TimeSlot"
        }, 
        {
            "type": "String", 
            "modifiers": [], 
            "references": [], 
            "location": {
                "column": 16, 
                "line": 30
            }, 
            "name": "returnValue"
        }, 
        {
            "type": "RestRequest", 
            "modifiers": [], 
            "references": [], 
            "location": {
                "column": 22, 
                "line": 33
            }, 
            "name": "httpRequest"
        }, 
        {
            "type": "RestResponse", 
            "modifiers": [], 
            "references": [], 
            "location": {
                "column": 23, 
                "line": 34
            }, 
            "name": "httpResponse"
        }, 
        {
            "type": "Map", 
            "modifiers": [], 
            "references": [], 
            "location": {
                "column": 29, 
                "line": 35
            }, 
            "name": "fetchDataMap"
        }, 
        {
            "type": "String", 
            "modifiers": [], 
            "references": [], 
            "location": {
                "column": 21, 
                "line": 36
            }, 
            "name": "str"
        }, 
        {
            "type": "Boolean", 
            "modifiers": [], 
            "references": [], 
            "location": {
                "column": 18, 
                "line": 41
            }, 
            "name": "isClassAppointment"
        }, 
        {
            "type": "Boolean", 
            "modifiers": [], 
            "references": [], 
            "location": {
                "column": 37, 
                "line": 41
            }, 
            "name": "isAnyPractitioner"
        }, 
        {
            "type": "String", 
            "modifiers": [], 
            "references": [], 
            "location": {
                "column": 17, 
                "line": 46
            }, 
            "name": "condition"
        }, 
        {
            "type": "LIST", 
            "modifiers": [], 
            "references": [], 
            "location": {
                "column": 58, 
                "line": 47
            }, 
            "name": "resTyeAppTypLst"
        }, 
        {
            "type": "fetchCalendarUtils", 
            "modifiers": [], 
            "references": [], 
            "location": {
                "column": 31, 
                "line": 55
            }, 
            "name": "fetchCalendarObject"
        }, 
        {
            "type": "Date", 
            "modifiers": [], 
            "references": [], 
            "location": {
                "column": 17, 
                "line": 56
            }, 
            "name": "calendarStartDate"
        }, 
        {
            "type": "Integer", 
            "modifiers": [], 
            "references": [], 
            "location": {
                "column": 20, 
                "line": 57
            }, 
            "name": "numberDays"
        }, 
        {
            "type": "Date", 
            "modifiers": [], 
            "references": [], 
            "location": {
                "column": 20, 
                "line": 58
            }, 
            "name": "calendarEndDate"
        }, 
        {
            "type": "Map", 
            "modifiers": [], 
            "references": [], 
            "location": {
                "column": 31, 
                "line": 67
            }, 
            "name": "humanResourceRequirements"
        }, 
        {
            "type": "Map", 
            "modifiers": [], 
            "references": [], 
            "location": {
                "column": 31, 
                "line": 69
            }, 
            "name": "nonHumanResourceRequirments"
        }, 
        {
            "type": "Map", 
            "modifiers": [], 
            "references": [], 
            "location": {
                "column": 37, 
                "line": 73
            }, 
            "name": "resourceTypeWithAllAssistantsMap"
        }, 
        {
            "type": "Map", 
            "modifiers": [], 
            "references": [], 
            "location": {
                "column": 42, 
                "line": 75
            }, 
            "name": "resourceTypeToActualResMap"
        }, 
        {
            "type": "Integer", 
            "modifiers": [], 
            "references": [], 
            "location": {
                "column": 24, 
                "line": 84
            }, 
            "name": "size"
        }, 
        {
            "type": "Set", 
            "modifiers": [], 
            "references": [], 
            "location": {
                "column": 23, 
                "line": 86
            }, 
            "name": "idSet"
        }, 
        {
            "type": "LIST", 
            "modifiers": [], 
            "references": [], 
            "location": {
                "column": 55, 
                "line": 87
            }, 
            "name": "aRBMlst"
        }, 
        {
            "type": "Integer", 
            "modifiers": [], 
            "references": [], 
            "location": {
                "column": 23, 
                "line": 90
            }, 
            "name": "adderNumber"
        }, 
        {
            "type": "Date", 
            "modifiers": [], 
            "references": [], 
            "location": {
                "column": 20, 
                "line": 91
            }, 
            "name": "startDate"
        }, 
        {
            "type": "Time", 
            "modifiers": [], 
            "references": [], 
            "location": {
                "column": 20, 
                "line": 92
            }, 
            "name": "tym"
        }, 
        {
            "type": "Datetime", 
            "modifiers": [], 
            "references": [], 
            "location": {
                "column": 24, 
                "line": 93
            }, 
            "name": "sT"
        }, 
        {
            "type": "Date", 
            "modifiers": [], 
            "references": [], 
            "location": {
                "column": 20, 
                "line": 94
            }, 
            "name": "endDate"
        }, 
        {
            "type": "LIST", 
            "modifiers": [], 
            "references": [], 
            "location": {
                "column": 23, 
                "line": 100
            }, 
            "name": "serviceProviderLst"
        }, 
        {
            "type": "Set", 
            "modifiers": [], 
            "references": [], 
            "location": {
                "column": 23, 
                "line": 101
            }, 
            "name": "serviceProviderIdSet"
        }, 
        {
            "type": "Set", 
            "modifiers": [], 
            "references": [], 
            "location": {
                "column": 23, 
                "line": 102
            }, 
            "name": "resourceTypeServiceProvidersSet"
        }, 
        {
            "type": "Contact", 
            "modifiers": [], 
            "references": [], 
            "location": {
                "column": 29, 
                "line": 106
            }, 
            "name": "SP"
        }, 
        {
            "type": "Contact", 
            "modifiers": [], 
            "references": [], 
            "location": {
                "column": 24, 
                "line": 114
            }, 
            "name": "serviceProvider"
        }, 
        {
            "type": "Datetime", 
            "modifiers": [], 
            "references": [], 
            "location": {
                "column": 31, 
                "line": 121
            }, 
            "name": "startDateTime"
        }, 
        {
            "type": "Datetime", 
            "modifiers": [], 
            "references": [], 
            "location": {
                "column": 31, 
                "line": 122
            }, 
            "name": "endDateTime"
        }, 
        {
            "type": "fetchCalendarUtils", 
            "modifiers": [], 
            "references": [], 
            "location": {
                "column": 30, 
                "line": 169
            }, 
            "name": "fetchCalendarObject"
        }, 
        {
            "type": "Date", 
            "modifiers": [], 
            "references": [], 
            "location": {
                "column": 16, 
                "line": 171
            }, 
            "name": "det"
        }, 
        {
            "type": "Time", 
            "modifiers": [], 
            "references": [], 
            "location": {
                "column": 22, 
                "line": 173
            }, 
            "name": "tym"
        }, 
        {
            "type": "Datetime", 
            "modifiers": [], 
            "references": [], 
            "location": {
                "column": 26, 
                "line": 174
            }, 
            "name": "t"
        }
    ], 
    "id": "01p28000004he6YAAQ", 
    "methods": [
        {
            "modifiers": [
                "static", 
                "global"
            ], 
            "name": "getEndUserWidgetLeftPane", 
            "parameters": [], 
            "visibility": "GLOBAL", 
            "references": [], 
            "location": {
                "column": 24, 
                "line": 9
            }, 
            "returnType": "void", 
            "type": null
        }, 
        {
            "modifiers": [
                "static", 
                "global"
            ], 
            "name": "getEndUserWidgetMonthlyCalendarAndEvents", 
            "parameters": [], 
            "visibility": "GLOBAL", 
            "references": [], 
            "location": {
                "column": 24, 
                "line": 25
            }, 
            "returnType": "void", 
            "type": null
        }
    ]
}