{
    "properties": [
        {
            "modifiers": [
                "public"
            ], 
            "name": "listAppointmentwrapper", 
            "visibility": "PUBLIC", 
            "references": [], 
            "location": {
                "column": 37, 
                "line": 10
            }, 
            "type": "LIST"
        }, 
        {
            "modifiers": [
                "public"
            ], 
            "name": "listCancelledAppointmentwrapper", 
            "visibility": "PUBLIC", 
            "references": [], 
            "location": {
                "column": 37, 
                "line": 11
            }, 
            "type": "LIST"
        }, 
        {
            "modifiers": [
                "public"
            ], 
            "name": "UserTimezone", 
            "visibility": "PUBLIC", 
            "references": [], 
            "location": {
                "column": 19, 
                "line": 12
            }, 
            "type": "String"
        }, 
        {
            "modifiers": [
                "private"
            ], 
            "name": "reccontact", 
            "visibility": "PRIVATE", 
            "references": [], 
            "location": {
                "column": 13, 
                "line": 14
            }, 
            "type": "Contact"
        }, 
        {
            "modifiers": [
                "public"
            ], 
            "name": "renderingcondition", 
            "visibility": "PUBLIC", 
            "references": [], 
            "location": {
                "column": 19, 
                "line": 15
            }, 
            "type": "String"
        }, 
        {
            "modifiers": [
                "public"
            ], 
            "name": "ContactID", 
            "visibility": "PUBLIC", 
            "references": [], 
            "location": {
                "column": 15, 
                "line": 16
            }, 
            "type": "Id"
        }, 
        {
            "modifiers": [
                "static", 
                "public"
            ], 
            "name": "listContacts", 
            "visibility": "PUBLIC", 
            "references": [], 
            "location": {
                "column": 33, 
                "line": 13
            }, 
            "type": "LIST"
        }
    ], 
    "externalReferences": [], 
    "innerClasses": [
        {
            "properties": [
                {
                    "modifiers": [
                        "public"
                    ], 
                    "name": "Appointment", 
                    "visibility": "PUBLIC", 
                    "references": [], 
                    "location": {
                        "column": 23, 
                        "line": 160
                    }, 
                    "type": "Event"
                }, 
                {
                    "modifiers": [
                        "public"
                    ], 
                    "name": "eventrels", 
                    "visibility": "PUBLIC", 
                    "references": [], 
                    "location": {
                        "column": 37, 
                        "line": 161
                    }, 
                    "type": "LIST"
                }, 
                {
                    "modifiers": [
                        "public"
                    ], 
                    "name": "listpatientnames", 
                    "visibility": "PUBLIC", 
                    "references": [], 
                    "location": {
                        "column": 30, 
                        "line": 162
                    }, 
                    "type": "LIST"
                }, 
                {
                    "modifiers": [
                        "public"
                    ], 
                    "name": "FormattedStartDate", 
                    "visibility": "PUBLIC", 
                    "references": [], 
                    "location": {
                        "column": 24, 
                        "line": 163
                    }, 
                    "type": "String"
                }, 
                {
                    "modifiers": [
                        "public"
                    ], 
                    "name": "FormattedEndDate", 
                    "visibility": "PUBLIC", 
                    "references": [], 
                    "location": {
                        "column": 24, 
                        "line": 164
                    }, 
                    "type": "String"
                }, 
                {
                    "modifiers": [
                        "public"
                    ], 
                    "name": "Randomnumber", 
                    "visibility": "PUBLIC", 
                    "references": [], 
                    "location": {
                        "column": 24, 
                        "line": 165
                    }, 
                    "type": "String"
                }, 
                {
                    "modifiers": [
                        "public"
                    ], 
                    "name": "practitionername", 
                    "visibility": "PUBLIC", 
                    "references": [], 
                    "location": {
                        "column": 24, 
                        "line": 166
                    }, 
                    "type": "String"
                }, 
                {
                    "modifiers": [
                        "public"
                    ], 
                    "name": "patientname", 
                    "visibility": "PUBLIC", 
                    "references": [], 
                    "location": {
                        "column": 24, 
                        "line": 167
                    }, 
                    "type": "String"
                }, 
                {
                    "modifiers": [
                        "public"
                    ], 
                    "name": "Description", 
                    "visibility": "PUBLIC", 
                    "references": [], 
                    "location": {
                        "column": 24, 
                        "line": 168
                    }, 
                    "type": "String"
                }, 
                {
                    "modifiers": [
                        "public"
                    ], 
                    "name": "Summary", 
                    "visibility": "PUBLIC", 
                    "references": [], 
                    "location": {
                        "column": 24, 
                        "line": 169
                    }, 
                    "type": "String"
                }
            ], 
            "externalReferences": [], 
            "innerClasses": [], 
            "interfaces": [], 
            "constructors": [
                {
                    "modifiers": [
                        "public"
                    ], 
                    "name": "Appointmentwrapper", 
                    "parameters": [
                        {
                            "type": "Event", 
                            "name": "app"
                        }
                    ], 
                    "visibility": "PUBLIC", 
                    "references": [], 
                    "location": {
                        "column": 17, 
                        "line": 171
                    }, 
                    "type": null
                }
            ], 
            "namespace": null, 
            "name": "Appointmentwrapper", 
            "tableDeclaration": {
                "type": "Appointmentwrapper", 
                "modifiers": [
                    "public"
                ], 
                "references": [], 
                "location": {
                    "column": 17, 
                    "line": 158
                }, 
                "name": "Appointmentwrapper"
            }, 
            "key": null, 
            "variables": [
                {
                    "type": "Event", 
                    "modifiers": [], 
                    "references": [], 
                    "location": {
                        "column": 42, 
                        "line": 171
                    }, 
                    "name": "app"
                }, 
                {
                    "type": "Configuration_Labels__c", 
                    "modifiers": [], 
                    "references": [], 
                    "location": {
                        "column": 37, 
                        "line": 173
                    }, 
                    "name": "LabelChangerSettingsCustomer"
                }, 
                {
                    "type": "Set", 
                    "modifiers": [], 
                    "references": [], 
                    "location": {
                        "column": 22, 
                        "line": 180
                    }, 
                    "name": "setrelids"
                }, 
                {
                    "type": "EventRelation", 
                    "modifiers": [], 
                    "references": [], 
                    "location": {
                        "column": 32, 
                        "line": 182
                    }, 
                    "name": "ER"
                }, 
                {
                    "type": "Contact", 
                    "modifiers": [], 
                    "references": [], 
                    "location": {
                        "column": 26, 
                        "line": 187
                    }, 
                    "name": "con"
                }, 
                {
                    "type": "Id", 
                    "modifiers": [], 
                    "references": [], 
                    "location": {
                        "column": 35, 
                        "line": 214
                    }, 
                    "name": "whoid"
                }, 
                {
                    "type": "String", 
                    "modifiers": [], 
                    "references": [], 
                    "location": {
                        "column": 20, 
                        "line": 216
                    }, 
                    "name": "name"
                }, 
                {
                    "type": "Contact", 
                    "modifiers": [], 
                    "references": [], 
                    "location": {
                        "column": 25, 
                        "line": 219
                    }, 
                    "name": "con"
                }, 
                {
                    "type": "Contact", 
                    "modifiers": [], 
                    "references": [], 
                    "location": {
                        "column": 29, 
                        "line": 220
                    }, 
                    "name": "c"
                }, 
                {
                    "type": "Datetime", 
                    "modifiers": [], 
                    "references": [], 
                    "location": {
                        "column": 49, 
                        "line": 238
                    }, 
                    "name": "appdate"
                }, 
                {
                    "type": "String", 
                    "modifiers": [], 
                    "references": [], 
                    "location": {
                        "column": 21, 
                        "line": 243
                    }, 
                    "name": "s"
                }, 
                {
                    "type": "String", 
                    "modifiers": [], 
                    "references": [], 
                    "location": {
                        "column": 21, 
                        "line": 244
                    }, 
                    "name": "s1"
                }, 
                {
                    "type": "String", 
                    "modifiers": [], 
                    "references": [], 
                    "location": {
                        "column": 21, 
                        "line": 245
                    }, 
                    "name": "s2"
                }, 
                {
                    "type": "String", 
                    "modifiers": [], 
                    "references": [], 
                    "location": {
                        "column": 21, 
                        "line": 246
                    }, 
                    "name": "s3"
                }, 
                {
                    "type": "String", 
                    "modifiers": [], 
                    "references": [], 
                    "location": {
                        "column": 21, 
                        "line": 247
                    }, 
                    "name": "s4"
                }, 
                {
                    "type": "String", 
                    "modifiers": [], 
                    "references": [], 
                    "location": {
                        "column": 21, 
                        "line": 248
                    }, 
                    "name": "s5"
                }, 
                {
                    "type": "String", 
                    "modifiers": [], 
                    "references": [], 
                    "location": {
                        "column": 21, 
                        "line": 249
                    }, 
                    "name": "s6"
                }, 
                {
                    "type": "String", 
                    "modifiers": [], 
                    "references": [], 
                    "location": {
                        "column": 21, 
                        "line": 250
                    }, 
                    "name": "s7"
                }, 
                {
                    "type": "String", 
                    "modifiers": [], 
                    "references": [], 
                    "location": {
                        "column": 21, 
                        "line": 251
                    }, 
                    "name": "formattedstring"
                }, 
                {
                    "type": "Date", 
                    "modifiers": [], 
                    "references": [], 
                    "location": {
                        "column": 19, 
                        "line": 253
                    }, 
                    "name": "myDate"
                }
            ], 
            "id": null, 
            "methods": [
                {
                    "modifiers": [
                        "public"
                    ], 
                    "name": "getname", 
                    "parameters": [
                        {
                            "type": "Id", 
                            "name": "whoid"
                        }
                    ], 
                    "visibility": "PUBLIC", 
                    "references": [], 
                    "location": {
                        "column": 24, 
                        "line": 214
                    }, 
                    "returnType": "String", 
                    "type": null
                }, 
                {
                    "modifiers": [
                        "public"
                    ], 
                    "name": "getformateddate", 
                    "parameters": [
                        {
                            "type": "Datetime", 
                            "name": "appdate"
                        }
                    ], 
                    "visibility": "PUBLIC", 
                    "references": [], 
                    "location": {
                        "column": 24, 
                        "line": 238
                    }, 
                    "returnType": "String", 
                    "type": null
                }
            ]
        }
    ], 
    "interfaces": [], 
    "constructors": [
        {
            "modifiers": [
                "public"
            ], 
            "name": "ExportSPAppointmentsController", 
            "parameters": [], 
            "visibility": "PUBLIC", 
            "references": [], 
            "location": {
                "column": 12, 
                "line": 22
            }, 
            "type": null
        }
    ], 
    "namespace": null, 
    "name": "ExportSPAppointmentsController", 
    "tableDeclaration": {
        "type": "ExportSPAppointmentsController", 
        "modifiers": [
            "public", 
            "with sharing"
        ], 
        "references": [], 
        "location": {
            "column": 27, 
            "line": 7
        }, 
        "name": "ExportSPAppointmentsController"
    }, 
    "key": "01p28000004zRybAAE", 
    "variables": [
        {
            "type": "TimeZone", 
            "modifiers": [], 
            "references": [], 
            "location": {
                "column": 22, 
                "line": 26
            }, 
            "name": "tz"
        }, 
        {
            "type": "String", 
            "modifiers": [], 
            "references": [], 
            "location": {
                "column": 65, 
                "line": 103
            }, 
            "name": "calledFrom"
        }, 
        {
            "type": "Boolean", 
            "modifiers": [], 
            "references": [], 
            "location": {
                "column": 84, 
                "line": 103
            }, 
            "name": "isscheduler"
        }, 
        {
            "type": "LIST", 
            "modifiers": [], 
            "references": [], 
            "location": {
                "column": 33, 
                "line": 105
            }, 
            "name": "lstappwrap"
        }, 
        {
            "type": "Date", 
            "modifiers": [], 
            "references": [], 
            "location": {
                "column": 14, 
                "line": 106
            }, 
            "name": "dstart"
        }, 
        {
            "type": "Date", 
            "modifiers": [], 
            "references": [], 
            "location": {
                "column": 14, 
                "line": 107
            }, 
            "name": "dend"
        }, 
        {
            "type": "Datetime", 
            "modifiers": [], 
            "references": [], 
            "location": {
                "column": 26, 
                "line": 124
            }, 
            "name": "dtstart"
        }, 
        {
            "type": "Datetime", 
            "modifiers": [], 
            "references": [], 
            "location": {
                "column": 26, 
                "line": 125
            }, 
            "name": "dtend"
        }, 
        {
            "type": "Event", 
            "modifiers": [], 
            "references": [], 
            "location": {
                "column": 31, 
                "line": 130
            }, 
            "name": "app"
        }, 
        {
            "type": "Event", 
            "modifiers": [], 
            "references": [], 
            "location": {
                "column": 31, 
                "line": 142
            }, 
            "name": "app"
        }
    ], 
    "id": "01p28000004zRybAAE", 
    "methods": [
        {
            "modifiers": [
                "public"
            ], 
            "name": "getAppointmentwrapperlist", 
            "parameters": [], 
            "visibility": "PUBLIC", 
            "references": [], 
            "location": {
                "column": 37, 
                "line": 44
            }, 
            "returnType": "LIST", 
            "type": null
        }, 
        {
            "modifiers": [
                "public"
            ], 
            "name": "getCancelledAppointmentwrapperlist", 
            "parameters": [], 
            "visibility": "PUBLIC", 
            "references": [], 
            "location": {
                "column": 37, 
                "line": 63
            }, 
            "returnType": "LIST", 
            "type": null
        }, 
        {
            "modifiers": [
                "public"
            ], 
            "name": "getWeeklyAppointmentwrapperlist", 
            "parameters": [], 
            "visibility": "PUBLIC", 
            "references": [], 
            "location": {
                "column": 37, 
                "line": 76
            }, 
            "returnType": "LIST", 
            "type": null
        }, 
        {
            "modifiers": [
                "public"
            ], 
            "name": "getWeeklyCancelledAppointmentwrapperlist", 
            "parameters": [], 
            "visibility": "PUBLIC", 
            "references": [], 
            "location": {
                "column": 38, 
                "line": 90
            }, 
            "returnType": "LIST", 
            "type": null
        }, 
        {
            "modifiers": [
                "public"
            ], 
            "name": "createappwrapperList", 
            "parameters": [
                {
                    "type": "String", 
                    "name": "calledFrom"
                }, 
                {
                    "type": "Boolean", 
                    "name": "isscheduler"
                }
            ], 
            "visibility": "PUBLIC", 
            "references": [], 
            "location": {
                "column": 37, 
                "line": 103
            }, 
            "returnType": "LIST", 
            "type": null
        }
    ]
}